%YAML 1.1
%TAG !u! tag:unity3d.com,2011:
--- !u!1001 &4514143195635831118
PrefabInstance:
  m_ObjectHideFlags: 0
  serializedVersion: 2
  m_Modification:
    m_TransformParent: {fileID: 0}
    m_Modifications:
    - target: {fileID: 2779174175057556006, guid: cebae1d762cb29b47a142357594c6a48,
        type: 3}
      propertyPath: m_LocalPosition.y
      value: 220
      objectReference: {fileID: 0}
    - target: {fileID: 2779174175337868135, guid: cebae1d762cb29b47a142357594c6a48,
        type: 3}
      propertyPath: m_LocalPosition.y
      value: 220
      objectReference: {fileID: 0}
    - target: {fileID: 2779174175465777919, guid: cebae1d762cb29b47a142357594c6a48,
        type: 3}
      propertyPath: m_LocalPosition.y
      value: 220
      objectReference: {fileID: 0}
    - target: {fileID: 2779174175658552004, guid: cebae1d762cb29b47a142357594c6a48,
        type: 3}
      propertyPath: m_LocalPosition.y
      value: 220
      objectReference: {fileID: 0}
    - target: {fileID: 2779174175789302969, guid: cebae1d762cb29b47a142357594c6a48,
        type: 3}
      propertyPath: m_LocalPosition.y
      value: 220
      objectReference: {fileID: 0}
    - target: {fileID: 2779174175807189920, guid: cebae1d762cb29b47a142357594c6a48,
        type: 3}
      propertyPath: m_LocalPosition.y
      value: 220
      objectReference: {fileID: 0}
    - target: {fileID: 2779174176055260381, guid: cebae1d762cb29b47a142357594c6a48,
        type: 3}
      propertyPath: m_LocalPosition.y
      value: 220
      objectReference: {fileID: 0}
    - target: {fileID: 2779174176285299059, guid: cebae1d762cb29b47a142357594c6a48,
        type: 3}
      propertyPath: m_LocalPosition.y
      value: 220
      objectReference: {fileID: 0}
    - target: {fileID: 2779174176649078224, guid: cebae1d762cb29b47a142357594c6a48,
        type: 3}
      propertyPath: m_LocalPosition.y
      value: 220
      objectReference: {fileID: 0}
    - target: {fileID: 2779174176655358225, guid: cebae1d762cb29b47a142357594c6a48,
        type: 3}
      propertyPath: m_LocalPosition.y
      value: 220
      objectReference: {fileID: 0}
    - target: {fileID: 4593960628971555896, guid: cebae1d762cb29b47a142357594c6a48,
        type: 3}
      propertyPath: m_LocalPosition.x
      value: 0
      objectReference: {fileID: 0}
    - target: {fileID: 4593960628971555896, guid: cebae1d762cb29b47a142357594c6a48,
        type: 3}
      propertyPath: m_LocalPosition.y
      value: 0
      objectReference: {fileID: 0}
    - target: {fileID: 4593960628971555896, guid: cebae1d762cb29b47a142357594c6a48,
        type: 3}
      propertyPath: m_LocalPosition.z
      value: 0
      objectReference: {fileID: 0}
    - target: {fileID: 4593960628971555896, guid: cebae1d762cb29b47a142357594c6a48,
        type: 3}
      propertyPath: m_LocalRotation.x
      value: -0
      objectReference: {fileID: 0}
    - target: {fileID: 4593960628971555896, guid: cebae1d762cb29b47a142357594c6a48,
        type: 3}
      propertyPath: m_LocalRotation.y
      value: -0
      objectReference: {fileID: 0}
    - target: {fileID: 4593960628971555896, guid: cebae1d762cb29b47a142357594c6a48,
        type: 3}
      propertyPath: m_LocalRotation.z
      value: -0
      objectReference: {fileID: 0}
    - target: {fileID: 4593960628971555896, guid: cebae1d762cb29b47a142357594c6a48,
        type: 3}
      propertyPath: m_LocalRotation.w
      value: 1
      objectReference: {fileID: 0}
    - target: {fileID: 4593960628971555896, guid: cebae1d762cb29b47a142357594c6a48,
        type: 3}
      propertyPath: m_RootOrder
      value: 0
      objectReference: {fileID: 0}
    - target: {fileID: 4593960628971555896, guid: cebae1d762cb29b47a142357594c6a48,
        type: 3}
      propertyPath: m_LocalEulerAnglesHint.x
      value: 0
      objectReference: {fileID: 0}
    - target: {fileID: 4593960628971555896, guid: cebae1d762cb29b47a142357594c6a48,
        type: 3}
      propertyPath: m_LocalEulerAnglesHint.y
      value: 0
      objectReference: {fileID: 0}
    - target: {fileID: 4593960628971555896, guid: cebae1d762cb29b47a142357594c6a48,
        type: 3}
      propertyPath: m_LocalEulerAnglesHint.z
      value: 0
      objectReference: {fileID: 0}
    - target: {fileID: 4593960628971555899, guid: cebae1d762cb29b47a142357594c6a48,
        type: 3}
      propertyPath: m_Name
      value: EnemiesFormation4
      objectReference: {fileID: 0}
    - target: {fileID: 4593960629329999001, guid: cebae1d762cb29b47a142357594c6a48,
        type: 3}
      propertyPath: m_LocalPosition.y
      value: 220
      objectReference: {fileID: 0}
    m_RemovedComponents: []
  m_SourcePrefab: {fileID: 100100000, guid: cebae1d762cb29b47a142357594c6a48, type: 3}
